…
## Data Import: CSVs

Let’s import data using the ‘readr’ package.

    ## ── Attaching packages ─────────────────────────────────────── tidyverse 1.3.2 ──
    ## ✔ ggplot2 3.3.6      ✔ purrr   0.3.4 
    ## ✔ tibble  3.1.8      ✔ dplyr   1.0.10
    ## ✔ tidyr   1.2.0      ✔ stringr 1.4.1 
    ## ✔ readr   2.1.2      ✔ forcats 0.5.2 
    ## ── Conflicts ────────────────────────────────────────── tidyverse_conflicts() ──
    ## ✖ dplyr::filter() masks stats::filter()
    ## ✖ dplyr::lag()    masks stats::lag()

    ## # A tibble: 49 × 8
    ##    group litter_number   gd0_weight gd18_weight gd_of_…¹ pups_…² pups_…³ pups_…⁴
    ##    <chr> <chr>                <dbl>       <dbl>    <int>   <int>   <int>   <int>
    ##  1 Con7  #85                   19.7        34.7       20       3       4       3
    ##  2 Con7  #1/2/95/2             27          42         19       8       0       7
    ##  3 Con7  #5/5/3/83/3-3         26          41.4       19       6       0       5
    ##  4 Con7  #5/4/2/95/2           28.5        44.1       19       5       1       4
    ##  5 Con7  #4/2/95/3-3           NA          NA         20       6       0       6
    ##  6 Con7  #2/2/95/3-2           NA          NA         20       6       0       4
    ##  7 Con7  #1/5/3/83/3-3/2       NA          NA         20       9       0       9
    ##  8 Con8  #3/83/3-3             NA          NA         20       9       1       8
    ##  9 Con8  #2/95/3               NA          NA         20       8       0       8
    ## 10 Con8  #3/5/2/2/95           28.5        NA         20       8       0       8
    ## # … with 39 more rows, and abbreviated variable names ¹​gd_of_birth,
    ## #   ²​pups_born_alive, ³​pups_dead_birth, ⁴​pups_survive

``` r
litters_data
```

    ## # A tibble: 49 × 8
    ##    group litter_number   gd0_weight gd18_weight gd_of_…¹ pups_…² pups_…³ pups_…⁴
    ##    <chr> <chr>                <dbl>       <dbl>    <int>   <int>   <int>   <int>
    ##  1 Con7  #85                   19.7        34.7       20       3       4       3
    ##  2 Con7  #1/2/95/2             27          42         19       8       0       7
    ##  3 Con7  #5/5/3/83/3-3         26          41.4       19       6       0       5
    ##  4 Con7  #5/4/2/95/2           28.5        44.1       19       5       1       4
    ##  5 Con7  #4/2/95/3-3           NA          NA         20       6       0       6
    ##  6 Con7  #2/2/95/3-2           NA          NA         20       6       0       4
    ##  7 Con7  #1/5/3/83/3-3/2       NA          NA         20       9       0       9
    ##  8 Con8  #3/83/3-3             NA          NA         20       9       1       8
    ##  9 Con8  #2/95/3               NA          NA         20       8       0       8
    ## 10 Con8  #3/5/2/2/95           28.5        NA         20       8       0       8
    ## # … with 39 more rows, and abbreviated variable names ¹​gd_of_birth,
    ## #   ²​pups_born_alive, ³​pups_dead_birth, ⁴​pups_survive
…
    ## Rows: 48 Columns: 8
    ## ── Column specification ────────────────────────────────────────────────────────
    ## Delimiter: ","
    ## chr (2): X1, X2
    ## dbl (6): X3, X4, X5, X6, X7, X8
    ## 
    ## ℹ Use `spec()` to retrieve the full column specification for this data.
    ## ℹ Specify the column types or set `show_col_types = FALSE` to quiet this message.

    ## # A tibble: 48 × 8
    ##    X1    X2                 X3    X4    X5    X6    X7    X8
    ##    <chr> <chr>           <dbl> <dbl> <dbl> <dbl> <dbl> <dbl>
    ##  1 Con7  #1/2/95/2        27    42      19     8    NA     7
    ##  2 Con7  #5/5/3/83/3-3    26    41.4    19     6    NA     5
    ##  3 Con7  #5/4/2/95/2      28.5  44.1    19     5     1     4
    ##  4 Con7  #4/2/95/3-3      NA    NA      20     6    NA     6
    ##  5 Con7  #2/2/95/3-2      NA    NA      20     6    NA     4
    ##  6 Con7  #1/5/3/83/3-3/2  NA    NA      20     9    NA     9
    ##  7 Con8  #3/83/3-3        NA    NA      20     9     1     8
    ##  8 Con8  #2/95/3          NA    NA      20     8    NA     8
    ##  9 Con8  #3/5/2/2/95      28.5  NA      20     8    NA     8
    ## 10 Con8  #5/4/3/83/3      28    NA      19     9    NA     8
    ## # … with 38 more rows

## Other file formats

We need to read in an excel spreadsheet.

``` r
library(readxl)
read_excel("./data/mlb11.xlsx")
```

    ## # A tibble: 30 × 12
    ##    team         runs at_bats  hits homer…¹ bat_avg strik…² stole…³  wins new_o…⁴
    ##    <chr>       <dbl>   <dbl> <dbl>   <dbl>   <dbl>   <dbl>   <dbl> <dbl>   <dbl>
    ##  1 Texas Rang…   855    5659  1599     210   0.283     930     143    96   0.34 
    ##  2 Boston Red…   875    5710  1600     203   0.28     1108     102    90   0.349
    ##  3 Detroit Ti…   787    5563  1540     169   0.277    1143      49    95   0.34 
    ##  4 Kansas Cit…   730    5672  1560     129   0.275    1006     153    71   0.329
    ##  5 St. Louis …   762    5532  1513     162   0.273     978      57    90   0.341
    ##  6 New York M…   718    5600  1477     108   0.264    1085     130    77   0.335
    ##  7 New York Y…   867    5518  1452     222   0.263    1138     147    97   0.343
    ##  8 Milwaukee …   721    5447  1422     185   0.261    1083      94    96   0.325
    ##  9 Colorado R…   735    5544  1429     163   0.258    1201     118    73   0.329
    ## 10 Houston As…   615    5598  1442      95   0.258    1164     118    56   0.311
    ## # … with 20 more rows, 2 more variables: new_slug <dbl>, new_obs <dbl>, and
    ## #   abbreviated variable names ¹​homeruns, ²​strikeouts, ³​stolen_bases,
    ## #   ⁴​new_onbase
…
